<?xml version="1.0" encoding="UTF-8"?>
<svg width="36px" height="36px" viewBox="0 0 36 36" version="1.1" xmlns="http://www.w3.org/2000/svg" xmlns:xlink="http://www.w3.org/1999/xlink">
    <!-- Generator: Sketch 53.2 (72643) - https://sketchapp.com -->
    <title>icon-ss-tw</title>
    <desc>Created with Sketch.</desc>
    <defs>
        <circle id="path-1" cx="18" cy="18" r="18"></circle>
    </defs>
    <g id="Website" stroke="none" stroke-width="1" fill="none" fill-rule="evenodd">
        <g id="Article" transform="translate(-790.000000, -921.000000)">
            <g id="icon-ss-tw" transform="translate(790.000000, 921.000000)">
                <mask id="mask-2" fill="white">
                    <use xlink:href="#path-1"></use>
                </mask>
                <use id="Mask" fill="#1DA1F2" xlink:href="#path-1"></use>
                <path d="M15.661,26 C22.45375,26 26.1685,20.6157946 26.1685,15.9463258 C26.1684319,15.7941305 26.1646809,15.641957 26.15725,15.4899278 C26.8801019,14.9898287 27.504094,14.3705532 28,13.6611063 C27.3261769,13.9470011 26.6113519,14.1345888 25.879375,14.2176106 C26.6503684,13.775969 27.2273109,13.0812527 27.50275,12.2628491 C26.7780096,12.674469 25.9851059,12.9646082 25.15825,13.1207483 C24.0152864,11.9508689 22.1929818,11.6626282 20.7173271,12.4183108 C19.2416725,13.1739935 18.4815817,14.7846788 18.865,16.3435213 C15.8950297,16.2006152 13.1281754,14.8577668 11.25325,12.6492805 C10.2699997,14.2632786 10.7710069,16.3307905 12.39625,17.3661113 C11.809743,17.3492449 11.2360402,17.1978939 10.723375,16.924783 L10.723375,16.9699922 C10.7238183,18.6518222 11.9626346,20.1004857 13.6855,20.4338813 C13.1414193,20.5752142 12.5707961,20.595831 12.017125,20.4941602 C12.5007011,21.93383 13.8873209,22.9201183 15.4675,22.9483762 C14.1592814,23.9306174 12.5437926,24.4632957 10.880875,24.460733 C10.58275,24.460733 10.289125,24.4445868 10,24.4122945 C11.6887334,25.4500742 13.6539553,26.0008741 15.661,25.9989236" id="Path" fill="#FFFFFF" fill-rule="nonzero" mask="url(#mask-2)"></path>
            </g>
        </g>
    </g>
</svg>