<?xml version="1.0" encoding="UTF-8"?>
<svg width="30px" height="21px" viewBox="0 0 30 21" version="1.1" xmlns="http://www.w3.org/2000/svg" xmlns:xlink="http://www.w3.org/1999/xlink">
    <!-- Generator: Sketch 53.2 (72643) - https://sketchapp.com -->
    <title>menu</title>
    <desc>Created with Sketch.</desc>
    <g id="App-V1" stroke="none" stroke-width="1" fill="none" fill-rule="evenodd">
        <g id="Category" transform="translate(-16.000000, -44.000000)" fill="#333333" fill-rule="nonzero">
            <g id="menu" transform="translate(16.000000, 44.000000)">
                <path d="M28.7881641,9.27999438 L1.21183594,9.27999438 C0.542578125,9.27999438 0,9.82617135 0,10.5 C0,11.1738287 0.542578125,11.7200056 1.21183594,11.7200056 L28.7881641,11.7200056 C29.4574805,11.7200056 30,11.1738287 30,10.5 C30,9.82623034 29.4574805,9.27999438 28.7881641,9.27999438 Z" id="Path"></path>
                <path d="M28.7881641,0.0258960674 L1.21183594,0.0258960674 C0.542578125,0.0258960674 0,0.572132022 0,1.24590169 C0,1.91967135 0.542578125,2.4659073 1.21183594,2.4659073 L28.7881641,2.4659073 C29.4574805,2.4659073 30,1.91967135 30,1.24590169 C30,0.572132022 29.4574805,0.0258960674 28.7881641,0.0258960674 Z" id="Path"></path>
                <path d="M28.7881641,18.5340927 L1.21183594,18.5340927 C0.542578125,18.5340927 0,19.0802697 0,19.7540983 C0,20.427927 0.542578125,20.9741039 1.21183594,20.9741039 L28.7881641,20.9741039 C29.4574805,20.9741039 30,20.427927 30,19.7540983 C30,19.0802697 29.4574805,18.5340927 28.7881641,18.5340927 Z" id="Path"></path>
            </g>
        </g>
    </g>
</svg>